…
    ## G:/My Drive/git/note_applied_epidemiology/data/estimate_samples.rds
    ## G:/My Drive/git/note_applied_epidemiology/data/estimated_reported_cases_samples.rds
    ## G:/My Drive/git/note_applied_epidemiology/data/latest_date.rds
    ## G:/My Drive/git/note_applied_epidemiology/data/reported_cases.rds
    ## G:/My Drive/git/note_applied_epidemiology/data/summarised_estimated_reported_cases.rds
    ## G:/My Drive/git/note_applied_epidemiology/data/summarised_estimates.rds

all meta info

``` r
fs::dir_info(here("data"))
```

    ## # A tibble: 77 × 18
    ##    path            type     size permissions modification_time   user  group device_id hard_links special_device_id inode
    ##    <fs::path>      <fct> <fs::b> <fs::perms> <dttm>              <chr> <chr>     <dbl>      <dbl>             <dbl> <dbl>
    ##  1 …te_samples.rds file    7.15M rw-         2024-04-03 15:44:29 <NA>  <NA>  428019990          0                 0   683
    ##  2 …es_samples.rds file  358.23K rw-         2024-04-03 15:44:29 <NA>  <NA>  428019990          0                 0   684
    ##  3 …atest_date.rds file       80 rw-         2024-04-03 15:44:29 <NA>  <NA>  428019990          0                 0   685
    ##  4 …rted_cases.rds file    1.29K rw-         2024-04-03 15:44:29 <NA>  <NA>  428019990          0                 0   686
    ##  5 …rted_cases.rds file    8.06K rw-         2024-04-03 15:44:29 <NA>  <NA>  428019990          0                 0   687
    ##  6 …_estimates.rds file   92.13K rw-         2024-04-03 15:44:31 <NA>  <NA>  428019990          0                 0   688
    ##  7 …ta/summary.rds file      686 rw-         2024-04-03 15:44:32 <NA>  <NA>  428019990          0                 0   689
    ##  8 …_res_small.rds file  262.11K rw-         2024-04-03 15:44:33 <NA>  <NA>  428019990          0                 0   690
    ##  9 …epinow_res.rds file   10.13M rw-         2024-04-03 15:44:34 <NA>  <NA>  428019990          0                 0   691
    ## 10 …ation_time.rds file      144 rw-         2024-04-03 15:44:35 <NA>  <NA>  428019990          0                 0   692
    ## # ℹ 67 more rows
    ## # ℹ 7 more variables: block_size <dbl>, blocks <dbl>, flags <int>, generation <dbl>, access_time <dttm>,
    ## #   change_time <dttm>, birth_time <dttm>
…
