…
# check for any server error ("200" is good!)
request$status_code
```

    ## [1] 200

``` r
# submit the request, parse the response, and convert to a data frame
content(request, as = "text", encoding = "UTF-8") %>%
        fromJSON(flatten = TRUE) %>%
        pluck("establishments") %>%
        tibble()
```

    ## # A tibble: 277 × 28
    ##    AddressLine1    AddressLine2  AddressLine3 AddressLine4 BusinessName BusinessType BusinessTypeID
    ##    <chr>           <chr>         <chr>        <chr>        <chr>        <chr>                 <int>
    ##  1 ""              "18 Northend… "Sale"       ""           Alfresco     Takeaway/sa…           7844
    ##  2 ""              "1 Marsland … "Sale"       ""           Allens Frie… Takeaway/sa…           7844
    ##  3 ""              "42 Greenwoo… "Altrincham" "Cheshire"   Altrincham … Takeaway/sa…           7844
    ##  4 ""              ""            ""           ""           Bakes in th… Takeaway/sa…           7844
    ##  5 ""              "102a Higher… "Urmston"    "Manchester" Banga Curri… Takeaway/sa…           7844
    ##  6 "2 The Orient"  ""            "Trafford P… "Manchester" Barburrito   Takeaway/sa…           7844
    ##  7 "Jackson House" "Sibson Road" "Sale"       ""           Bean Coffee… Takeaway/sa…           7844
    ##  8 ""              "104 Stamfor… "Altrincham" ""           Bebe's Take… Takeaway/sa…           7844
    ##  9 ""              "351 Stockpo… "Timperley"  "Altrincham" Beirut Leba… Takeaway/sa…           7844
    ## 10 ""              "Bens"        "Mall Kiosk… "Peel Avenu… Bens Cookies Takeaway/sa…           7844
    ## # ℹ 267 more rows
    ## # ℹ 21 more variables: ChangesByServerID <int>, Distance <lgl>, FHRSID <int>,
    ## #   LocalAuthorityBusinessID <chr>, LocalAuthorityCode <chr>, LocalAuthorityEmailAddress <chr>,
    ## #   LocalAuthorityName <chr>, LocalAuthorityWebSite <chr>, NewRatingPending <lgl>, Phone <chr>,
    ## #   PostCode <chr>, RatingDate <chr>, RatingKey <chr>, RatingValue <chr>, RightToReply <chr>,
    ## #   SchemeType <chr>, geocode.longitude <chr>, geocode.latitude <chr>, scores.Hygiene <int>,
    ## #   scores.Structural <int>, scores.ConfidenceInManagement <int>
