…
    ## # A tibble: 3 × 2
    ##   age_class     n
    ##   <chr>     <int>
    ## 1 adult      2184
    ## 2 child      3618
    ## 3 <NA>         86

Add/drop grouping columns

``` r
# group by outcome
(df <- data %>% group_by(outcome))
```

    ## # A tibble: 5,888 × 30
    ## # Groups:   outcome [3]
    ##    case_id generation date_infection date_onset date_hospitalisation date_outcome outcome gender   age
    ##    <chr>        <dbl> <date>         <date>     <date>               <date>       <chr>   <chr>  <dbl>
    ##  1 5fe599           4 2014-05-08     2014-05-13 2014-05-15           NA           <NA>    m          2
    ##  2 8689b7           4 NA             2014-05-13 2014-05-14           2014-05-18   Recover f          3
    ##  3 11f8ea           2 NA             2014-05-16 2014-05-18           2014-05-30   Recover m         56
    ##  4 b8812a           3 2014-05-04     2014-05-18 2014-05-20           NA           <NA>    f         18
    ##  5 893f25           3 2014-05-18     2014-05-21 2014-05-22           2014-05-29   Recover m          3
    ##  6 be99c8           3 2014-05-03     2014-05-22 2014-05-23           2014-05-24   Recover f         16
    ##  7 07e3e8           4 2014-05-22     2014-05-27 2014-05-29           2014-06-01   Recover f         16
    ##  8 369449           4 2014-05-28     2014-06-02 2014-06-03           2014-06-07   Death   f          0
    ##  9 f393b4           4 NA             2014-06-05 2014-06-06           2014-06-18   Recover m         61
    ## 10 1389ca           4 NA             2014-06-05 2014-06-07           2014-06-09   Death   f         27
    ## # ℹ 5,878 more rows
    ## # ℹ 21 more variables: age_unit <chr>, age_years <dbl>, age_cat <fct>, age_cat5 <fct>, hospital <chr>,
    ## #   lon <dbl>, lat <dbl>, infector <chr>, source <chr>, wt_kg <dbl>, ht_cm <dbl>, ct_blood <dbl>,
    ## #   fever <chr>, chills <chr>, cough <chr>, aches <chr>, vomit <chr>, temp <dbl>, time_admission <chr>,
    ## #   bmi <dbl>, days_onset_hosp <dbl>

``` r
# add grouping by gender
df %>% group_by(gender)
```

    ## # A tibble: 5,888 × 30
    ## # Groups:   gender [3]
    ##    case_id generation date_infection date_onset date_hospitalisation date_outcome outcome gender   age
    ##    <chr>        <dbl> <date>         <date>     <date>               <date>       <chr>   <chr>  <dbl>
    ##  1 5fe599           4 2014-05-08     2014-05-13 2014-05-15           NA           <NA>    m          2
    ##  2 8689b7           4 NA             2014-05-13 2014-05-14           2014-05-18   Recover f          3
    ##  3 11f8ea           2 NA             2014-05-16 2014-05-18           2014-05-30   Recover m         56
    ##  4 b8812a           3 2014-05-04     2014-05-18 2014-05-20           NA           <NA>    f         18
    ##  5 893f25           3 2014-05-18     2014-05-21 2014-05-22           2014-05-29   Recover m          3
    ##  6 be99c8           3 2014-05-03     2014-05-22 2014-05-23           2014-05-24   Recover f         16
    ##  7 07e3e8           4 2014-05-22     2014-05-27 2014-05-29           2014-06-01   Recover f         16
    ##  8 369449           4 2014-05-28     2014-06-02 2014-06-03           2014-06-07   Death   f          0
    ##  9 f393b4           4 NA             2014-06-05 2014-06-06           2014-06-18   Recover m         61
    ## 10 1389ca           4 NA             2014-06-05 2014-06-07           2014-06-09   Death   f         27
    ## # ℹ 5,878 more rows
    ## # ℹ 21 more variables: age_unit <chr>, age_years <dbl>, age_cat <fct>, age_cat5 <fct>, hospital <chr>,
    ## #   lon <dbl>, lat <dbl>, infector <chr>, source <chr>, wt_kg <dbl>, ht_cm <dbl>, ct_blood <dbl>,
    ## #   fever <chr>, chills <chr>, cough <chr>, aches <chr>, vomit <chr>, temp <dbl>, time_admission <chr>,
    ## #   bmi <dbl>, days_onset_hosp <dbl>

``` r
df %>% group_by(gender, .add = TRUE)
```

    ## # A tibble: 5,888 × 30
    ## # Groups:   outcome, gender [9]
    ##    case_id generation date_infection date_onset date_hospitalisation date_outcome outcome gender   age
    ##    <chr>        <dbl> <date>         <date>     <date>               <date>       <chr>   <chr>  <dbl>
    ##  1 5fe599           4 2014-05-08     2014-05-13 2014-05-15           NA           <NA>    m          2
    ##  2 8689b7           4 NA             2014-05-13 2014-05-14           2014-05-18   Recover f          3
    ##  3 11f8ea           2 NA             2014-05-16 2014-05-18           2014-05-30   Recover m         56
    ##  4 b8812a           3 2014-05-04     2014-05-18 2014-05-20           NA           <NA>    f         18
    ##  5 893f25           3 2014-05-18     2014-05-21 2014-05-22           2014-05-29   Recover m          3
    ##  6 be99c8           3 2014-05-03     2014-05-22 2014-05-23           2014-05-24   Recover f         16
    ##  7 07e3e8           4 2014-05-22     2014-05-27 2014-05-29           2014-06-01   Recover f         16
    ##  8 369449           4 2014-05-28     2014-06-02 2014-06-03           2014-06-07   Death   f          0
    ##  9 f393b4           4 NA             2014-06-05 2014-06-06           2014-06-18   Recover m         61
    ## 10 1389ca           4 NA             2014-06-05 2014-06-07           2014-06-09   Death   f         27
    ## # ℹ 5,878 more rows
    ## # ℹ 21 more variables: age_unit <chr>, age_years <dbl>, age_cat <fct>, age_cat5 <fct>, hospital <chr>,
    ## #   lon <dbl>, lat <dbl>, infector <chr>, source <chr>, wt_kg <dbl>, ht_cm <dbl>, ct_blood <dbl>,
    ## #   fever <chr>, chills <chr>, cough <chr>, aches <chr>, vomit <chr>, temp <dbl>, time_admission <chr>,
    ## #   bmi <dbl>, days_onset_hosp <dbl>
…
    ##   gender hospitals per gender
    ## 1      f                    6
    ## 2      m                    6
    ## 3   <NA>                    6

`add_count()`: add a new column `n` with the counts of rows per group

``` r
data %>% add_count(hospital) %>% 
        select(hospital, n, everything()) %>%
        tibble()
```

    ## # A tibble: 5,888 × 31
    ##    hospital         n case_id generation date_infection date_onset date_hospitalisation date_outcome outcome
    ##    <chr>        <int> <chr>        <dbl> <date>         <date>     <date>               <date>       <chr>  
    ##  1 Other          885 5fe599           4 2014-05-08     2014-05-13 2014-05-15           NA           <NA>   
    ##  2 Missing       1469 8689b7           4 NA             2014-05-13 2014-05-14           2014-05-18   Recover
    ##  3 St. Mark's …   422 11f8ea           2 NA             2014-05-16 2014-05-18           2014-05-30   Recover
    ##  4 Port Hospit…  1762 b8812a           3 2014-05-04     2014-05-18 2014-05-20           NA           <NA>   
    ##  5 Military Ho…   896 893f25           3 2014-05-18     2014-05-21 2014-05-22           2014-05-29   Recover
    ##  6 Port Hospit…  1762 be99c8           3 2014-05-03     2014-05-22 2014-05-23           2014-05-24   Recover
    ##  7 Missing       1469 07e3e8           4 2014-05-22     2014-05-27 2014-05-29           2014-06-01   Recover
    ##  8 Missing       1469 369449           4 2014-05-28     2014-06-02 2014-06-03           2014-06-07   Death  
    ##  9 Missing       1469 f393b4           4 NA             2014-06-05 2014-06-06           2014-06-18   Recover
    ## 10 Missing       1469 1389ca           4 NA             2014-06-05 2014-06-07           2014-06-09   Death  
    ## # ℹ 5,878 more rows
    ## # ℹ 22 more variables: gender <chr>, age <dbl>, age_unit <chr>, age_years <dbl>, age_cat <fct>,
    ## #   age_cat5 <fct>, lon <dbl>, lat <dbl>, infector <chr>, source <chr>, wt_kg <dbl>, ht_cm <dbl>,
    ## #   ct_blood <dbl>, fever <chr>, chills <chr>, cough <chr>, aches <chr>, vomit <chr>, temp <dbl>,
    ## #   time_admission <chr>, bmi <dbl>, days_onset_hosp <dbl>
…
### Filter on grouped data

``` r
data %>% group_by(hospital) %>%
        # arrange data_hospitalisation from latest to earliest within each group
        arrange(hospital, date_hospitalisation) %>% 
        # slice first 5 rows from each hospital
        slice_head(n = 5) %>% 
        arrange(hospital) %>%
        select(case_id, hospital, date_hospitalisation)
```

    ## # A tibble: 30 × 3
    ## # Groups:   hospital [6]
    ##    case_id hospital          date_hospitalisation
    ##    <chr>   <chr>             <date>              
    ##  1 20b688  Central Hospital  2014-05-06          
    ##  2 d58402  Central Hospital  2014-05-10          
    ##  3 b8f2fd  Central Hospital  2014-05-13          
    ##  4 acf422  Central Hospital  2014-05-28          
    ##  5 275cc7  Central Hospital  2014-05-28          
    ##  6 d1fafd  Military Hospital 2014-04-17          
    ##  7 974bc1  Military Hospital 2014-05-13          
    ##  8 6a9004  Military Hospital 2014-05-13          
    ##  9 09e386  Military Hospital 2014-05-14          
    ## 10 865581  Military Hospital 2014-05-15          
    ## # ℹ 20 more rows
…
        mutate(# mean days to admission per hospital
               group_delay_admit = round(mean(days_onset_hosp,
                                              na.rm = TRUE),
                                         2),
               # difference between row's delay and mean delay at their hospital
               diff_to_group     = round(days_onset_hosp - group_delay_admit,
                                         2)) %>%
        select(case_id, 
               hospital,
               days_onset_hosp,
               group_delay_admit,
               diff_to_group)
```

    ## # A tibble: 5,888 × 5
    ## # Groups:   hospital [6]
    ##    case_id hospital                             days_onset_hosp group_delay_admit diff_to_group
    ##    <chr>   <chr>                                          <dbl>             <dbl>         <dbl>
    ##  1 5fe599  Other                                              2              2.05         -0.05
    ##  2 8689b7  Missing                                            1              2.08         -1.08
    ##  3 11f8ea  St. Mark's Maternity Hospital (SMMH)               2              2.08         -0.08
    ##  4 b8812a  Port Hospital                                      2              2.05         -0.05
    ##  5 893f25  Military Hospital                                  1              2.12         -1.12
    ##  6 be99c8  Port Hospital                                      1              2.05         -1.05
    ##  7 07e3e8  Missing                                            2              2.08         -0.08
    ##  8 369449  Missing                                            1              2.08         -1.08
    ##  9 f393b4  Missing                                            1              2.08         -1.08
    ## 10 1389ca  Missing                                            2              2.08         -0.08
    ## # ℹ 5,878 more rows
…
