…
``` r
data %>% group_by(outcome) %>%
        count(age_cat) %>%
        mutate(percent = scales::percent(n / sum(n)))
```

    ## # A tibble: 26 × 4
    ## # Groups:   outcome [3]
    ##    outcome age_cat     n percent
    ##    <chr>   <fct>   <int> <chr>  
    ##  1 Death   0-4       471 18.242%
    ##  2 Death   5-9       476 18.435%
    ##  3 Death   10-14     438 16.964%
    ##  4 Death   15-19     323 12.510%
    ##  5 Death   20-29     477 18.474%
    ##  6 Death   30-49     329 12.742%
    ##  7 Death   50-69      33 1.278% 
    ##  8 Death   70+         3 0.116% 
    ##  9 Death   <NA>       32 1.239% 
    ## 10 Recover 0-4       364 18.36% 
    ## # ℹ 16 more rows
…
