…
data01 %>% tibble()
```

    ## # A tibble: 6,611 × 4
    ##      age age_unit age_years age_cat
    ##    <dbl> <chr>        <dbl> <fct>  
    ##  1     2 years            2 0-4    
    ##  2     3 years            3 0-4    
    ##  3    56 years           56 50-59  
    ##  4    18 years           18 15-19  
    ##  5     3 years            3 0-4    
    ##  6    16 years           16 15-19  
    ##  7    16 years           16 15-19  
    ##  8     0 years            0 0-4    
    ##  9    61 years           61 60-69  
    ## 10    27 years           27 20-29  
    ## # ℹ 6,601 more rows
…
``` r
data %>%
        rowwise() %>% 
        mutate(symptoms = sum(c(fever,
                                chills,
                                cough,
                                aches,
                                vomit) == "yes")) %>%
        # recommended, remove effects of rowwise() in subsequent steps
        ungroup() %>% 
        select(fever, chills, cough, aches, vomit, symptoms)
```

    ## # A tibble: 6,611 × 6
    ##    fever chills cough aches vomit symptoms
    ##    <chr> <chr>  <chr> <chr> <chr>    <int>
    ##  1 no    no     yes   no    yes          2
    ##  2 <NA>  <NA>   <NA>  <NA>  <NA>        NA
    ##  3 <NA>  <NA>   <NA>  <NA>  <NA>        NA
    ##  4 no    no     no    no    no           0
    ##  5 no    no     yes   no    yes          2
    ##  6 no    no     yes   no    yes          2
    ##  7 <NA>  <NA>   <NA>  <NA>  <NA>        NA
    ##  8 no    no     yes   no    yes          2
    ##  9 no    no     yes   no    yes          2
    ## 10 no    no     yes   no    no           1
    ## # ℹ 6,601 more rows
…
